%YAML 1.1
%TAG !u! tag:unity3d.com,2011:
--- !u!74 &7400000
AnimationClip:
  m_ObjectHideFlags: 0
  m_CorrespondingSourceObject: {fileID: 0}
  m_PrefabInstance: {fileID: 0}
  m_PrefabAsset: {fileID: 0}
  m_Name: newsit
  serializedVersion: 6
  m_Legacy: 0
  m_Compressed: 0
  m_UseHighQualityCurve: 1
  m_RotationCurves: []
  m_CompressedRotationCurves: []
  m_EulerCurves: []
  m_PositionCurves: []
  m_ScaleCurves: []
  m_FloatCurves:
  - curve:
      serializedVersion: 2
      m_Curve:
      - serializedVersion: 3
        time: 0
        value: 0.057043355
        inSlope: -0.00011354684
        outSlope: -0.00011354684
        tangentMode: 0
        weightedMode: 0
        inWeight: 0.33333334
        outWeight: 0.33333334
      - serializedVersion: 3
        time: 0.81666666
        value: 0.05671141
        inSlope: -0.0004387651
        outSlope: -0.0004387651
        tangentMode: 0
        weightedMode: 0
        inWeight: 0.33333334
        outWeight: 0.33333334
      - serializedVersion: 3
        time: 1.6333333
        value: 0.05676914
        inSlope: 0.0005271663
        outSlope: 0.0005271663
        tangentMode: 0
        weightedMode: 0
        inWeight: 0.33333334
        outWeight: 0.33333334
      - serializedVersion: 3
        time: 2.4666667
        value: 0.057029
        inSlope: -0.00019770135
        outSlope: -0.00019770135
        tangentMode: 0
        weightedMode: 0
        inWeight: 0.33333334
        outWeight: 0.33333334
      - serializedVersion: 3
        time: 3.2833333
        value: 0.05669484
        inSlope: -0.00030968367
        outSlope: -0.00030968367
        tangentMode: 0
        weightedMode: 0
        inWeight: 0.33333334
        outWeight: 0.33333334
      - serializedVersion: 3
        time: 4.116667
        value: 0.05686767
        inSlope: 0.00050291535
        outSlope: 0.00050291535
        tangentMode: 0
        weightedMode: 0
        inWeight: 0.33333334
        outWeight: 0.33333334
      - serializedVersion: 3
        time: 4.9333334
        value: 0.056991603
        inSlope: -0.00032018864
        outSlope: -0.00032018864
        tangentMode: 0
        weightedMode: 0
        inWeight: 0.33333334
        outWeight: 0.33333334
      - serializedVersion: 3
        time: 5.75
        value: 0.05666598
        inSlope: -0.00012874653
        outSlope: -0.00012874653
        tangentMode: 0
        weightedMode: 0
        inWeight: 0.33333334
        outWeight: 0.33333334
      - serializedVersion: 3
        time: 6.5833335
        value: 0.0569317
        inSlope: 0.00043876597
        outSlope: 0.00043876597
        tangentMode: 0
        weightedMode: 0
        inWeight: 0.33333334
        outWeight: 0.33333334
      - serializedVersion: 3
        time: 7
        value: 0.057044256
        inSlope: 0.00007934762
        outSlope: 0.00007934762
        tangentMode: 0
        weightedMode: 0
        inWeight: 0.33333334
        outWeight: 0.33333334
      m_PreInfinity: 2
      m_PostInfinity: 2
      m_RotationOrder: 4
    attribute: Left Lower Leg Stretch
    path: 
    classID: 95
    script: {fileID: 0}
  - curve:
      serializedVersion: 2
      m_Curve:
      - serializedVersion: 3
        time: 0
        value: 1.3666444e-18
        inSlope: 0
        outSlope: 0
        tangentMode: 0
        weightedMode: 0
        inWeight: 0.33333334
        outWeight: 0.33333334
      - serializedVersion: 3
        time: 7
        value: 1.3666444e-18
        inSlope: 0
        outSlope: 0
        tangentMode: 0
        weightedMode: 0
        inWeight: 0.33333334
        outWeight: 0.33333334
      m_PreInfinity: 2
      m_PostInfinity: 2
      m_RotationOrder: 4
    attribute: Left Toes Up-Down
    path: 
    classID: 95
    script: {fileID: 0}
  - curve:
      serializedVersion: 2
      m_Curve:
      - serializedVersion: 3
        time: 0
        value: -0.57624394
        inSlope: 0.00040411946
        outSlope: 0.00040411946
        tangentMode: 0
        weightedMode: 0
        inWeight: 0.33333334
        outWeight: 0.33333334
      - serializedVersion: 3
        time: 0.81666666
        value: -0.5659746
        inSlope: 0.0141602885
        outSlope: 0.0141602885
        tangentMode: 0
        weightedMode: 0
        inWeight: 0.33333334
        outWeight: 0.33333334
      - serializedVersion: 3
        time: 1.6333333
        value: -0.56775624
        inSlope: -0.016154066
        outSlope: -0.016154066
        tangentMode: 0
        weightedMode: 0
        inWeight: 0.33333334
        outWeight: 0.33333334
      - serializedVersion: 3
        time: 2.4666667
        value: -0.57576936
        inSlope: 0.0068289107
        outSlope: 0.0068289107
        tangentMode: 0
        weightedMode: 0
        inWeight: 0.33333334
        outWeight: 0.33333334
      - serializedVersion: 3
        time: 3.2833333
        value: -0.5643103
        inSlope: 0.010210285
        outSlope: 0.010210285
        tangentMode: 0
        weightedMode: 0
        inWeight: 0.33333334
        outWeight: 0.33333334
      - serializedVersion: 3
        time: 4.116667
        value: -0.5702453
        inSlope: -0.016808525
        outSlope: -0.016808525
        tangentMode: 0
        weightedMode: 0
        inWeight: 0.33333334
        outWeight: 0.33333334
      - serializedVersion: 3
        time: 4.9333334
        value: -0.5745015
        inSlope: 0.011900075
        outSlope: 0.011900075
        tangentMode: 0
        weightedMode: 0
        inWeight: 0.33333334
        outWeight: 0.33333334
      - serializedVersion: 3
        time: 5.75
        value: -0.5633118
        inSlope: 0.004479287
        outSlope: 0.004479287
        tangentMode: 0
        weightedMode: 0
        inWeight: 0.33333334
        outWeight: 0.33333334
      - serializedVersion: 3
        time: 6.5833335
        value: -0.5724192
        inSlope: -0.01548888
        outSlope: -0.01548888
        tangentMode: 0
        weightedMode: 0
        inWeight: 0.33333334
        outWeight: 0.33333334
      - serializedVersion: 3
        time: 7
        value: -0.5762435
        inSlope: -0.00041841902
        outSlope: -0.00041841902
        tangentMode: 0
        weightedMode: 0
        inWeight: 0.33333334
        outWeight: 0.33333334
      m_PreInfinity: 2
      m_PostInfinity: 2
      m_RotationOrder: 4
    attribute: Left Upper Leg Front-Back
    path: 
    classID: 95
    script: {fileID: 0}
  - curve:
      serializedVersion: 2
      m_Curve:
      - serializedVersion: 3
        time: 0
        value: 0.1765336
        inSlope: -0.000016987324
        outSlope: -0.000016987324
        tangentMode: 0
        weightedMode: 0
        inWeight: 0.33333334
        outWeight: 0.33333334
      - serializedVersion: 3
        time: 0.81666666
        value: 0.17532288
        inSlope: -0.001621397
        outSlope: -0.001621397
        tangentMode: 0
        weightedMode: 0
        inWeight: 0.33333334
        outWeight: 0.33333334
      - serializedVersion: 3
        time: 1.6333333
        value: 0.17552726
        inSlope: 0.001864137
        outSlope: 0.001864137
        tangentMode: 0
        weightedMode: 0
        inWeight: 0.33333334
        outWeight: 0.33333334
      - serializedVersion: 3
        time: 2.4666667
        value: 0.17647573
        inSlope: -0.000836403
        outSlope: -0.000836403
        tangentMode: 0
        weightedMode: 0
        inWeight: 0.33333334
        outWeight: 0.33333334
      - serializedVersion: 3
        time: 3.2833333
        value: 0.17512843
        inSlope: -0.0011448574
        outSlope: -0.0011448574
        tangentMode: 0
        weightedMode: 0
        inWeight: 0.33333334
        outWeight: 0.33333334
      - serializedVersion: 3
        time: 4.116667
        value: 0.17581376
        inSlope: 0.0019754488
        outSlope: 0.0019754488
        tangentMode: 0
        weightedMode: 0
        inWeight: 0.33333334
        outWeight: 0.33333334
      - serializedVersion: 3
        time: 4.9333334
        value: 0.17632207
        inSlope: -0.0014497349
        outSlope: -0.0014497349
        tangentMode: 0
        weightedMode: 0
        inWeight: 0.33333334
        outWeight: 0.33333334
      - serializedVersion: 3
        time: 5.75
        value: 0.1750159
        inSlope: -0.00050827843
        outSlope: -0.00050827843
        tangentMode: 0
        weightedMode: 0
        inWeight: 0.33333334
        outWeight: 0.33333334
      - serializedVersion: 3
        time: 6.5833335
        value: 0.17607123
        inSlope: 0.0018493847
        outSlope: 0.0018493847
        tangentMode: 0
        weightedMode: 0
        inWeight: 0.33333334
        outWeight: 0.33333334
      - serializedVersion: 3
        time: 7
        value: 0.17653342
        inSlope: 0.00003576231
        outSlope: 0.00003576231
        tangentMode: 0
        weightedMode: 0
        inWeight: 0.33333334
        outWeight: 0.33333334
      m_PreInfinity: 2
      m_PostInfinity: 2
      m_RotationOrder: 4
    attribute: Left Upper Leg In-Out
    path: 
    classID: 95
    script: {fileID: 0}
  - curve:
      serializedVersion: 2
      m_Curve:
      - serializedVersion: 3
        time: 0
        value: 0.22224009
        inSlope: -0.000057220455
        outSlope: -0.000057220455
        tangentMode: 0
        weightedMode: 0
        inWeight: 0.33333334
        outWeight: 0.33333334
      - serializedVersion: 3
        time: 0.81666666
        value: 0.22093867
        inSlope: -0.0017546134
        outSlope: -0.0017546134
        tangentMode: 0
        weightedMode: 0
        inWeight: 0.33333334
        outWeight: 0.33333334
      - serializedVersion: 3
        time: 1.6333333
        value: 0.22115944
        inSlope: 0.0020116586
        outSlope: 0.0020116586
        tangentMode: 0
        weightedMode: 0
        inWeight: 0.33333334
        outWeight: 0.33333334
      - serializedVersion: 3
        time: 2.4666667
        value: 0.2221784
        inSlope: -0.00089407054
        outSlope: -0.00089407054
        tangentMode: 0
        weightedMode: 0
        inWeight: 0.33333334
        outWeight: 0.33333334
      - serializedVersion: 3
        time: 3.2833333
        value: 0.22073598
        inSlope: -0.0012338173
        outSlope: -0.0012338173
        tangentMode: 0
        weightedMode: 0
        inWeight: 0.33333334
        outWeight: 0.33333334
      - serializedVersion: 3
        time: 4.116667
        value: 0.22147255
        inSlope: 0.002112689
        outSlope: 0.002112689
        tangentMode: 0
        weightedMode: 0
        inWeight: 0.33333334
        outWeight: 0.33333334
      - serializedVersion: 3
        time: 4.9333334
        value: 0.2220149
        inSlope: -0.0015382478
        outSlope: -0.0015382478
        tangentMode: 0
        weightedMode: 0
        inWeight: 0.33333334
        outWeight: 0.33333334
      - serializedVersion: 3
        time: 5.75
        value: 0.22061443
        inSlope: -0.0005543231
        outSlope: -0.0005543231
        tangentMode: 0
        weightedMode: 0
        inWeight: 0.33333334
        outWeight: 0.33333334
      - serializedVersion: 3
        time: 6.5833335
        value: 0.22174765
        inSlope: 0.0019700844
        outSlope: 0.0019700844
        tangentMode: 0
        weightedMode: 0
        inWeight: 0.33333334
        outWeight: 0.33333334
      - serializedVersion: 3
        time: 7
        value: 0.22224021
        inSlope: 0.00006437216
        outSlope: 0.00006437216
        tangentMode: 0
        weightedMode: 0
        inWeight: 0.33333334
        outWeight: 0.33333334
      m_PreInfinity: 2
      m_PostInfinity: 2
      m_RotationOrder: 4
    attribute: Left Upper Leg Twist In-Out
    path: 
    classID: 95
    script: {fileID: 0}
  - curve:
      serializedVersion: 2
      m_Curve:
      - serializedVersion: 3
        time: 0
        value: -0.52724767
        inSlope: 0.00017166136
        outSlope: 0.00017166136
        tangentMode: 0
        weightedMode: 0
        inWeight: 0.33333334
        outWeight: 0.33333334
      - serializedVersion: 3
        time: 0.81666666
        value: -0.52393997
        inSlope: 0.0044828695
        outSlope: 0.0044828695
        tangentMode: 0
        weightedMode: 0
        inWeight: 0.33333334
        outWeight: 0.33333334
      - serializedVersion: 3
        time: 1.6333333
        value: -0.52450585
        inSlope: -0.005149846
        outSlope: -0.005149846
        tangentMode: 0
        weightedMode: 0
        inWeight: 0.33333334
        outWeight: 0.33333334
      - serializedVersion: 3
        time: 2.4666667
        value: -0.5270923
        inSlope: 0.0022244477
        outSlope: 0.0022244477
        tangentMode: 0
        weightedMode: 0
        inWeight: 0.33333334
        outWeight: 0.33333334
      - serializedVersion: 3
        time: 3.2833333
        value: -0.5234212
        inSlope: 0.0032132897
        outSlope: 0.0032132897
        tangentMode: 0
        weightedMode: 0
        inWeight: 0.33333334
        outWeight: 0.33333334
      - serializedVersion: 3
        time: 4.116667
        value: -0.5253056
        inSlope: -0.0053894576
        outSlope: -0.0053894576
        tangentMode: 0
        weightedMode: 0
        inWeight: 0.33333334
        outWeight: 0.33333334
      - serializedVersion: 3
        time: 4.9333334
        value: -0.5266796
        inSlope: 0.0038623835
        outSlope: 0.0038623835
        tangentMode: 0
        weightedMode: 0
        inWeight: 0.33333334
        outWeight: 0.33333334
      - serializedVersion: 3
        time: 5.75
        value: -0.52310765
        inSlope: 0.0014090532
        outSlope: 0.0014090532
        tangentMode: 0
        weightedMode: 0
        inWeight: 0.33333334
        outWeight: 0.33333334
      - serializedVersion: 3
        time: 6.5833335
        value: -0.52600515
        inSlope: -0.004997855
        outSlope: -0.004997855
        tangentMode: 0
        weightedMode: 0
        inWeight: 0.33333334
        outWeight: 0.33333334
      - serializedVersion: 3
        time: 7
        value: -0.5272477
        inSlope: -0.00016093039
        outSlope: -0.00016093039
        tangentMode: 0
        weightedMode: 0
        inWeight: 0.33333334
        outWeight: 0.33333334
      m_PreInfinity: 2
      m_PostInfinity: 2
      m_RotationOrder: 4
    attribute: LeftFootQ.x
    path: 
    classID: 95
    script: {fileID: 0}
  - curve:
      serializedVersion: 2
      m_Curve:
      - serializedVersion: 3
        time: 0
        value: 0.4652048
        inSlope: 0.00015556811
        outSlope: 0.00015556811
        tangentMode: 0
        weightedMode: 0
        inWeight: 0.33333334
        outWeight: 0.33333334
      - serializedVersion: 3
        time: 0.81666666
        value: 0.46833277
        inSlope: 0.004207496
        outSlope: 0.004207496
        tangentMode: 0
        weightedMode: 0
        inWeight: 0.33333334
        outWeight: 0.33333334
      - serializedVersion: 3
        time: 1.6333333
        value: 0.46780103
        inSlope: -0.0048467563
        outSlope: -0.0048467563
        tangentMode: 0
        weightedMode: 0
        inWeight: 0.33333334
        outWeight: 0.33333334
      - serializedVersion: 3
        time: 2.4666667
        value: 0.4653527
        inSlope: 0.0021144766
        outSlope: 0.0021144766
        tangentMode: 0
        weightedMode: 0
        inWeight: 0.33333334
        outWeight: 0.33333334
      - serializedVersion: 3
        time: 3.2833333
        value: 0.46881914
        inSlope: 0.003004971
        outSlope: 0.003004971
        tangentMode: 0
        weightedMode: 0
        inWeight: 0.33333334
        outWeight: 0.33333334
      - serializedVersion: 3
        time: 4.116667
        value: 0.46704724
        inSlope: -0.0050935196
        outSlope: -0.0050935196
        tangentMode: 0
        weightedMode: 0
        inWeight: 0.33333334
        outWeight: 0.33333334
      - serializedVersion: 3
        time: 4.9333334
        value: 0.46574554
        inSlope: 0.0036755227
        outSlope: 0.0036755227
        tangentMode: 0
        weightedMode: 0
        inWeight: 0.33333334
        outWeight: 0.33333334
      - serializedVersion: 3
        time: 5.75
        value: 0.4691124
        inSlope: 0.0013115996
        outSlope: 0.0013115996
        tangentMode: 0
        weightedMode: 0
        inWeight: 0.33333334
        outWeight: 0.33333334
      - serializedVersion: 3
        time: 6.5833335
        value: 0.4663855
        inSlope: -0.0047332104
        outSlope: -0.0047332104
        tangentMode: 0
        weightedMode: 0
        inWeight: 0.33333334
        outWeight: 0.33333334
      - serializedVersion: 3
        time: 7
        value: 0.4652048
        inSlope: -0.00014483735
        outSlope: -0.00014483735
        tangentMode: 0
        weightedMode: 0
        inWeight: 0.33333334
        outWeight: 0.33333334
      m_PreInfinity: 2
      m_PostInfinity: 2
      m_RotationOrder: 4
    attribute: LeftFootQ.y
    path: 
    classID: 95
    script: {fileID: 0}
  - curve:
      serializedVersion: 2
      m_Curve:
      - serializedVersion: 3
        time: 0
        value: -0.49068445
        inSlope: 0.00013589859
        outSlope: 0.00013589859
        tangentMode: 0
        weightedMode: 0
        inWeight: 0.33333334
        outWeight: 0.33333334
      - serializedVersion: 3
        time: 0.81666666
        value: -0.48772213
        inSlope: 0.004008118
        outSlope: 0.004008118
        tangentMode: 0
        weightedMode: 0
        inWeight: 0.33333334
        outWeight: 0.33333334
      - serializedVersion: 3
        time: 1.6333333
        value: -0.48822832
        inSlope: -0.004613404
        outSlope: -0.004613404
        tangentMode: 0
        weightedMode: 0
        inWeight: 0.33333334
        outWeight: 0.33333334
      - serializedVersion: 3
        time: 2.4666667
        value: -0.4905453
        inSlope: 0.001990201
        outSlope: 0.001990201
        tangentMode: 0
        weightedMode: 0
        inWeight: 0.33333334
        outWeight: 0.33333334
      - serializedVersion: 3
        time: 3.2833333
        value: -0.48725796
        inSlope: 0.0028699664
        outSlope: 0.0028699664
        tangentMode: 0
        weightedMode: 0
        inWeight: 0.33333334
        outWeight: 0.33333334
      - serializedVersion: 3
        time: 4.116667
        value: -0.4889441
        inSlope: -0.004831557
        outSlope: -0.004831557
        tangentMode: 0
        weightedMode: 0
        inWeight: 0.33333334
        outWeight: 0.33333334
      - serializedVersion: 3
        time: 4.9333334
        value: -0.49017507
        inSlope: 0.0034654164
        outSlope: 0.0034654164
        tangentMode: 0
        weightedMode: 0
        inWeight: 0.33333334
        outWeight: 0.33333334
      - serializedVersion: 3
        time: 5.75
        value: -0.4869776
        inSlope: 0.0012552734
        outSlope: 0.0012552734
        tangentMode: 0
        weightedMode: 0
        inWeight: 0.33333334
        outWeight: 0.33333334
      - serializedVersion: 3
        time: 6.5833335
        value: -0.48957083
        inSlope: -0.0044783996
        outSlope: -0.0044783996
        tangentMode: 0
        weightedMode: 0
        inWeight: 0.33333334
        outWeight: 0.33333334
      - serializedVersion: 3
        time: 7
        value: -0.4906845
        inSlope: -0.00014483735
        outSlope: -0.00014483735
        tangentMode: 0
        weightedMode: 0
        inWeight: 0.33333334
        outWeight: 0.33333334
      m_PreInfinity: 2
      m_PostInfinity: 2
      m_RotationOrder: 4
    attribute: LeftFootQ.z
    path: 
    classID: 95
    script: {fileID: 0}
  - curve:
      serializedVersion: 2
      m_Curve:
      - serializedVersion: 3
        time: 0
        value: 0.51461
        inSlope: 0.00016093253
        outSlope: 0.00016093253
        tangentMode: 0
        weightedMode: 0
        inWeight: 0.33333334
        outWeight: 0.33333334
      - serializedVersion: 3
        time: 0.81666666
        value: 0.51795614
        inSlope: 0.004502539
        outSlope: 0.004502539
        tangentMode: 0
        weightedMode: 0
        inWeight: 0.33333334
        outWeight: 0.33333334
      - serializedVersion: 3
        time: 1.6333333
        value: 0.5173866
        inSlope: -0.0051784567
        outSlope: -0.0051784567
        tangentMode: 0
        weightedMode: 0
        inWeight: 0.33333334
        outWeight: 0.33333334
      - serializedVersion: 3
        time: 2.4666667
        value: 0.51476777
        inSlope: 0.0022637867
        outSlope: 0.0022637867
        tangentMode: 0
        weightedMode: 0
        inWeight: 0.33333334
        outWeight: 0.33333334
      - serializedVersion: 3
        time: 3.2833333
        value: 0.51847726
        inSlope: 0.0032240185
        outSlope: 0.0032240185
        tangentMode: 0
        weightedMode: 0
        inWeight: 0.33333334
        outWeight: 0.33333334
      - serializedVersion: 3
        time: 4.116667
        value: 0.51657975
        inSlope: -0.0054502543
        outSlope: -0.0054502543
        tangentMode: 0
        weightedMode: 0
        inWeight: 0.33333334
        outWeight: 0.33333334
      - serializedVersion: 3
        time: 4.9333334
        value: 0.51518774
        inSlope: 0.0039213924
        outSlope: 0.0039213924
        tangentMode: 0
        weightedMode: 0
        inWeight: 0.33333334
        outWeight: 0.33333334
      - serializedVersion: 3
        time: 5.75
        value: 0.5187917
        inSlope: 0.0014036889
        outSlope: 0.0014036889
        tangentMode: 0
        weightedMode: 0
        inWeight: 0.33333334
        outWeight: 0.33333334
      - serializedVersion: 3
        time: 6.5833335
        value: 0.51587194
        inSlope: -0.00506044
        outSlope: -0.00506044
        tangentMode: 0
        weightedMode: 0
        inWeight: 0.33333334
        outWeight: 0.33333334
      - serializedVersion: 3
        time: 7
        value: 0.51460993
        inSlope: -0.00016450662
        outSlope: -0.00016450662
        tangentMode: 0
        weightedMode: 0
        inWeight: 0.33333334
        outWeight: 0.33333334
      m_PreInfinity: 2
      m_PostInfinity: 2
      m_RotationOrder: 4
    attribute: LeftFootQ.w
    path: 
    classID: 95
    script: {fileID: 0}
  - curve:
      serializedVersion: 2
      m_Curve:
      - serializedVersion: 3
        time: 0
        value: -0.07422801
        inSlope: 0
        outSlope: 0
        tangentMode: 0
        weightedMode: 0
        inWeight: 0.33333334
        outWeight: 0.33333334
      - serializedVersion: 3
        time: 7
        value: -0.07422801
        inSlope: 0
        outSlope: 0
        tangentMode: 0
        weightedMode: 0
        inWeight: 0.33333334
        outWeight: 0.33333334
      m_PreInfinity: 2
      m_PostInfinity: 2
      m_RotationOrder: 4
    attribute: LeftFootT.x
    path: 
    classID: 95
    script: {fileID: 0}
  - curve:
      serializedVersion: 2
      m_Curve:
      - serializedVersion: 3
        time: 0
        value: -0.70149463
        inSlope: -0.00021100043
        outSlope: -0.00021100043
        tangentMode: 0
        weightedMode: 0
        inWeight: 0.33333334
        outWeight: 0.33333334
      - serializedVersion: 3
        time: 0.81666666
        value: -0.7055562
        inSlope: -0.0052499822
        outSlope: -0.0052499822
        tangentMode: 0
        weightedMode: 0
        inWeight: 0.33333334
        outWeight: 0.33333334
      - serializedVersion: 3
        time: 1.6333333
        value: -0.70488834
        inSlope: 0.0061351117
        outSlope: 0.0061351117
        tangentMode: 0
        weightedMode: 0
        inWeight: 0.33333334
        outWeight: 0.33333334
      - serializedVersion: 3
        time: 2.4666667
        value: -0.7016929
        inSlope: -0.002852085
        outSlope: -0.002852085
        tangentMode: 0
        weightedMode: 0
        inWeight: 0.33333334
        outWeight: 0.33333334
      - serializedVersion: 3
        time: 3.2833333
        value: -0.7061577
        inSlope: -0.0036656891
        outSlope: -0.0036656891
        tangentMode: 0
        weightedMode: 0
        inWeight: 0.33333334
        outWeight: 0.33333334
      - serializedVersion: 3
        time: 4.116667
        value: -0.70392555
        inSlope: 0.006544596
        outSlope: 0.006544596
        tangentMode: 0
        weightedMode: 0
        inWeight: 0.33333334
        outWeight: 0.33333334
      - serializedVersion: 3
        time: 4.9333334
        value: -0.70221883
        inSlope: -0.0048869886
        outSlope: -0.0048869886
        tangentMode: 0
        weightedMode: 0
        inWeight: 0.33333334
        outWeight: 0.33333334
      - serializedVersion: 3
        time: 5.75
        value: -0.70651686
        inSlope: -0.001587867
        outSlope: -0.001587867
        tangentMode: 0
        weightedMode: 0
        inWeight: 0.33333334
        outWeight: 0.33333334
      - serializedVersion: 3
        time: 6.5833335
        value: -0.70306474
        inSlope: 0.006219155
        outSlope: 0.006219155
        tangentMode: 0
        weightedMode: 0
        inWeight: 0.33333334
        outWeight: 0.33333334
      - serializedVersion: 3
        time: 7
        value: -0.70149434
        inSlope: 0.0002074214
        outSlope: 0.0002074214
        tangentMode: 0
        weightedMode: 0
        inWeight: 0.33333334
        outWeight: 0.33333334
      m_PreInfinity: 2
      m_PostInfinity: 2
      m_RotationOrder: 4
    attribute: LeftFootT.y
    path: 
    classID: 95
    script: {fileID: 0}
  - curve:
      serializedVersion: 2
      m_Curve:
      - serializedVersion: 3
        time: 0
        value: 0.34949
        inSlope: -0.00030934808
        outSlope: -0.00030934808
        tangentMode: 0
        weightedMode: 0
        inWeight: 0.33333334
        outWeight: 0.33333334
      - serializedVersion: 3
        time: 0.81666666
        value: 0.34353703
        inSlope: -0.008024283
        outSlope: -0.008024283
        tangentMode: 0
        weightedMode: 0
        inWeight: 0.33333334
        outWeight: 0.33333334
      - serializedVersion: 3
        time: 1.6333333
        value: 0.34455132
        inSlope: 0.009225019
        outSlope: 0.009225019
        tangentMode: 0
        weightedMode: 0
        inWeight: 0.33333334
        outWeight: 0.33333334
      - serializedVersion: 3
        time: 2.4666667
        value: 0.34920868
        inSlope: -0.0040251054
        outSlope: -0.0040251054
        tangentMode: 0
        weightedMode: 0
        inWeight: 0.33333334
        outWeight: 0.33333334
      - serializedVersion: 3
        time: 3.2833333
        value: 0.34259778
        inSlope: -0.005713111
        outSlope: -0.005713111
        tangentMode: 0
        weightedMode: 0
        inWeight: 0.33333334
        outWeight: 0.33333334
      - serializedVersion: 3
        time: 4.116667
        value: 0.34598082
        inSlope: 0.009714076
        outSlope: 0.009714076
        tangentMode: 0
        weightedMode: 0
        inWeight: 0.33333334
        outWeight: 0.33333334
      - serializedVersion: 3
        time: 4.9333334
        value: 0.34846115
        inSlope: -0.0069782184
        outSlope: -0.0069782184
        tangentMode: 0
        weightedMode: 0
        inWeight: 0.33333334
        outWeight: 0.33333334
      - serializedVersion: 3
        time: 5.75
        value: 0.3420367
        inSlope: -0.002515017
        outSlope: -0.002515017
        tangentMode: 0
        weightedMode: 0
        inWeight: 0.33333334
        outWeight: 0.33333334
      - serializedVersion: 3
        time: 6.5833335
        value: 0.34724304
        inSlope: 0.009011338
        outSlope: 0.009011338
        tangentMode: 0
        weightedMode: 0
        inWeight: 0.33333334
        outWeight: 0.33333334
      - serializedVersion: 3
        time: 7
        value: 0.34949008
        inSlope: 0.00029682717
        outSlope: 0.00029682717
        tangentMode: 0
        weightedMode: 0
        inWeight: 0.33333334
        outWeight: 0.33333334
      m_PreInfinity: 2
      m_PostInfinity: 2
      m_RotationOrder: 4
    attribute: LeftFootT.z
    path: 
    classID: 95
    script: {fileID: 0}
  m_PPtrCurves: []
  m_SampleRate: 60
  m_WrapMode: 0
  m_Bounds:
    m_Center: {x: 0, y: 0, z: 0}
    m_Extent: {x: 0, y: 0, z: 0}
  m_ClipBindingConstant:
    genericBindings:
    - serializedVersion: 2
      path: 0
      attribute: 66
      script: {fileID: 0}
      typeID: 95
      customType: 8
      isPPtrCurve: 0
    - serializedVersion: 2
      path: 0
      attribute: 63
      script: {fileID: 0}
      typeID: 95
      customType: 8
      isPPtrCurve: 0
    - serializedVersion: 2
      path: 0
      attribute: 64
      script: {fileID: 0}
      typeID: 95
      customType: 8
      isPPtrCurve: 0
    - serializedVersion: 2
      path: 0
      attribute: 65
      script: {fileID: 0}
      typeID: 95
      customType: 8
      isPPtrCurve: 0
    - serializedVersion: 2
      path: 0
      attribute: 17
      script: {fileID: 0}
      typeID: 95
      customType: 8
      isPPtrCurve: 0
    - serializedVersion: 2
      path: 0
      attribute: 18
      script: {fileID: 0}
      typeID: 95
      customType: 8
      isPPtrCurve: 0
    - serializedVersion: 2
      path: 0
      attribute: 19
      script: {fileID: 0}
      typeID: 95
      customType: 8
      isPPtrCurve: 0
    - serializedVersion: 2
      path: 0
      attribute: 20
      script: {fileID: 0}
      typeID: 95
      customType: 8
      isPPtrCurve: 0
    - serializedVersion: 2
      path: 0
      attribute: 15
      script: {fileID: 0}
      typeID: 95
      customType: 8
      isPPtrCurve: 0
    - serializedVersion: 2
      path: 0
      attribute: 16
      script: {fileID: 0}
      typeID: 95
      customType: 8
      isPPtrCurve: 0
    - serializedVersion: 2
      path: 0
      attribute: 70
      script: {fileID: 0}
      typeID: 95
      customType: 8
      isPPtrCurve: 0
    - serializedVersion: 2
      path: 0
      attribute: 14
      script: {fileID: 0}
      typeID: 95
      customType: 8
      isPPtrCurve: 0
    pptrCurveMapping: []
  m_AnimationClipSettings:
    serializedVersion: 2
    m_AdditiveReferencePoseClip: {fileID: 0}
    m_AdditiveReferencePoseTime: 0
    m_StartTime: 0
    m_StopTime: 7
    m_OrientationOffsetY: 0
    m_Level: 0
    m_CycleOffset: 0
    m_HasAdditiveReferencePose: 0
    m_LoopTime: 0
    m_LoopBlend: 0
    m_LoopBlendOrientation: 0
    m_LoopBlendPositionY: 0
    m_LoopBlendPositionXZ: 0
    m_KeepOriginalOrientation: 0
    m_KeepOriginalPositionY: 1
    m_KeepOriginalPositionXZ: 0
    m_HeightFromFeet: 0
    m_Mirror: 0
  m_EditorCurves:
  - curve:
      serializedVersion: 2
      m_Curve:
      - serializedVersion: 3
        time: 0
        value: 0.057043355
        inSlope: -0.00011354684
        outSlope: -0.00011354684
        tangentMode: 0
        weightedMode: 0
        inWeight: 0.33333334
        outWeight: 0.33333334
      - serializedVersion: 3
        time: 0.81666666
        value: 0.05671141
        inSlope: -0.0004387651
        outSlope: -0.0004387651
        tangentMode: 0
        weightedMode: 0
        inWeight: 0.33333334
        outWeight: 0.33333334
      - serializedVersion: 3
        time: 1.6333333
        value: 0.05676914
        inSlope: 0.0005271663
        outSlope: 0.0005271663
        tangentMode: 0
        weightedMode: 0
        inWeight: 0.33333334
        outWeight: 0.33333334
      - serializedVersion: 3
        time: 2.4666667
        value: 0.057029
        inSlope: -0.00019770135
        outSlope: -0.00019770135
        tangentMode: 0
        weightedMode: 0
        inWeight: 0.33333334
        outWeight: 0.33333334
      - serializedVersion: 3
        time: 3.2833333
        value: 0.05669484
        inSlope: -0.00030968367
        outSlope: -0.00030968367
        tangentMode: 0
        weightedMode: 0
        inWeight: 0.33333334
        outWeight: 0.33333334
      - serializedVersion: 3
        time: 4.116667
        value: 0.05686767
        inSlope: 0.00050291535
        outSlope: 0.00050291535
        tangentMode: 0
        weightedMode: 0
        inWeight: 0.33333334
        outWeight: 0.33333334
      - serializedVersion: 3
        time: 4.9333334
        value: 0.056991603
        inSlope: -0.00032018864
        outSlope: -0.00032018864
        tangentMode: 0
        weightedMode: 0
        inWeight: 0.33333334
        outWeight: 0.33333334
      - serializedVersion: 3
        time: 5.75
        value: 0.05666598
        inSlope: -0.00012874653
        outSlope: -0.00012874653
        tangentMode: 0
        weightedMode: 0
        inWeight: 0.33333334
        outWeight: 0.33333334
      - serializedVersion: 3
        time: 6.5833335
        value: 0.0569317
        inSlope: 0.00043876597
        outSlope: 0.00043876597
        tangentMode: 0
        weightedMode: 0
        inWeight: 0.33333334
        outWeight: 0.33333334
      - serializedVersion: 3
        time: 7
        value: 0.057044256
        inSlope: 0.00007934762
        outSlope: 0.00007934762
        tangentMode: 0
        weightedMode: 0
        inWeight: 0.33333334
        outWeight: 0.33333334
      m_PreInfinity: 2
      m_PostInfinity: 2
      m_RotationOrder: 4
    attribute: Left Lower Leg Stretch
    path: 
    classID: 95
    script: {fileID: 0}
  - curve:
      serializedVersion: 2
      m_Curve:
      - serializedVersion: 3
        time: 0
        value: 1.3666444e-18
        inSlope: 0
        outSlope: 0
        tangentMode: 0
        weightedMode: 0
        inWeight: 0.33333334
        outWeight: 0.33333334
      - serializedVersion: 3
        time: 7
        value: 1.3666444e-18
        inSlope: 0
        outSlope: 0
        tangentMode: 0
        weightedMode: 0
        inWeight: 0.33333334
        outWeight: 0.33333334
      m_PreInfinity: 2
      m_PostInfinity: 2
      m_RotationOrder: 4
    attribute: Left Toes Up-Down
    path: 
    classID: 95
    script: {fileID: 0}
  - curve:
      serializedVersion: 2
      m_Curve:
      - serializedVersion: 3
        time: 0
        value: -0.57624394
        inSlope: 0.00040411946
        outSlope: 0.00040411946
        tangentMode: 0
        weightedMode: 0
        inWeight: 0.33333334
        outWeight: 0.33333334
      - serializedVersion: 3
        time: 0.81666666
        value: -0.5659746
        inSlope: 0.0141602885
        outSlope: 0.0141602885
        tangentMode: 0
        weightedMode: 0
        inWeight: 0.33333334
        outWeight: 0.33333334
      - serializedVersion: 3
        time: 1.6333333
        value: -0.56775624
        inSlope: -0.016154066
        outSlope: -0.016154066
        tangentMode: 0
        weightedMode: 0
        inWeight: 0.33333334
        outWeight: 0.33333334
      - serializedVersion: 3
        time: 2.4666667
        value: -0.57576936
        inSlope: 0.0068289107
        outSlope: 0.0068289107
        tangentMode: 0
        weightedMode: 0
        inWeight: 0.33333334
        outWeight: 0.33333334
      - serializedVersion: 3
        time: 3.2833333
        value: -0.5643103
        inSlope: 0.010210285
        outSlope: 0.010210285
        tangentMode: 0
        weightedMode: 0
        inWeight: 0.33333334
        outWeight: 0.33333334
      - serializedVersion: 3
        time: 4.116667
        value: -0.5702453
        inSlope: -0.016808525
        outSlope: -0.016808525
        tangentMode: 0
        weightedMode: 0
        inWeight: 0.33333334
        outWeight: 0.33333334
      - serializedVersion: 3
        time: 4.9333334
        value: -0.5745015
        inSlope: 0.011900075
        outSlope: 0.011900075
        tangentMode: 0
        weightedMode: 0
        inWeight: 0.33333334
        outWeight: 0.33333334
      - serializedVersion: 3
        time: 5.75
        value: -0.5633118
        inSlope: 0.004479287
        outSlope: 0.004479287
        tangentMode: 0
        weightedMode: 0
        inWeight: 0.33333334
        outWeight: 0.33333334
      - serializedVersion: 3
        time: 6.5833335
        value: -0.5724192
        inSlope: -0.01548888
        outSlope: -0.01548888
        tangentMode: 0
        weightedMode: 0
        inWeight: 0.33333334
        outWeight: 0.33333334
      - serializedVersion: 3
        time: 7
        value: -0.5762435
        inSlope: -0.00041841902
        outSlope: -0.00041841902
        tangentMode: 0
        weightedMode: 0
        inWeight: 0.33333334
        outWeight: 0.33333334
      m_PreInfinity: 2
      m_PostInfinity: 2
      m_RotationOrder: 4
    attribute: Left Upper Leg Front-Back
    path: 
    classID: 95
    script: {fileID: 0}
  - curve:
      serializedVersion: 2
      m_Curve:
      - serializedVersion: 3
        time: 0
        value: 0.1765336
        inSlope: -0.000016987324
        outSlope: -0.000016987324
        tangentMode: 0
        weightedMode: 0
        inWeight: 0.33333334
        outWeight: 0.33333334
      - serializedVersion: 3
        time: 0.81666666
        value: 0.17532288
        inSlope: -0.001621397
        outSlope: -0.001621397
        tangentMode: 0
        weightedMode: 0
        inWeight: 0.33333334
        outWeight: 0.33333334
      - serializedVersion: 3
        time: 1.6333333
        value: 0.17552726
        inSlope: 0.001864137
        outSlope: 0.001864137
        tangentMode: 0
        weightedMode: 0
        inWeight: 0.33333334
        outWeight: 0.33333334
      - serializedVersion: 3
        time: 2.4666667
        value: 0.17647573
        inSlope: -0.000836403
        outSlope: -0.000836403
        tangentMode: 0
        weightedMode: 0
        inWeight: 0.33333334
        outWeight: 0.33333334
      - serializedVersion: 3
        time: 3.2833333
        value: 0.17512843
        inSlope: -0.0011448574
        outSlope: -0.0011448574
        tangentMode: 0
        weightedMode: 0
        inWeight: 0.33333334
        outWeight: 0.33333334
      - serializedVersion: 3
        time: 4.116667
        value: 0.17581376
        inSlope: 0.0019754488
        outSlope: 0.0019754488
        tangentMode: 0
        weightedMode: 0
        inWeight: 0.33333334
        outWeight: 0.33333334
      - serializedVersion: 3
        time: 4.9333334
        value: 0.17632207
        inSlope: -0.0014497349
        outSlope: -0.0014497349
        tangentMode: 0
        weightedMode: 0
        inWeight: 0.33333334
        outWeight: 0.33333334
      - serializedVersion: 3
        time: 5.75
        value: 0.1750159
        inSlope: -0.00050827843
        outSlope: -0.00050827843
        tangentMode: 0
        weightedMode: 0
        inWeight: 0.33333334
        outWeight: 0.33333334
      - serializedVersion: 3
        time: 6.5833335
        value: 0.17607123
        inSlope: 0.0018493847
        outSlope: 0.0018493847
        tangentMode: 0
        weightedMode: 0
        inWeight: 0.33333334
        outWeight: 0.33333334
      - serializedVersion: 3
        time: 7
        value: 0.17653342
        inSlope: 0.00003576231
        outSlope: 0.00003576231
        tangentMode: 0
        weightedMode: 0
        inWeight: 0.33333334
        outWeight: 0.33333334
      m_PreInfinity: 2
      m_PostInfinity: 2
      m_RotationOrder: 4
    attribute: Left Upper Leg In-Out
    path: 
    classID: 95
    script: {fileID: 0}
  - curve:
      serializedVersion: 2
      m_Curve:
      - serializedVersion: 3
        time: 0
        value: 0.22224009
        inSlope: -0.000057220455
        outSlope: -0.000057220455
        tangentMode: 0
        weightedMode: 0
        inWeight: 0.33333334
        outWeight: 0.33333334
      - serializedVersion: 3
        time: 0.81666666
        value: 0.22093867
        inSlope: -0.0017546134
        outSlope: -0.0017546134
        tangentMode: 0
        weightedMode: 0
        inWeight: 0.33333334
        outWeight: 0.33333334
      - serializedVersion: 3
        time: 1.6333333
        value: 0.22115944
        inSlope: 0.0020116586
        outSlope: 0.0020116586
        tangentMode: 0
        weightedMode: 0
        inWeight: 0.33333334
        outWeight: 0.33333334
      - serializedVersion: 3
        time: 2.4666667
        value: 0.2221784
        inSlope: -0.00089407054
        outSlope: -0.00089407054
        tangentMode: 0
        weightedMode: 0
        inWeight: 0.33333334
        outWeight: 0.33333334
      - serializedVersion: 3
        time: 3.2833333
        value: 0.22073598
        inSlope: -0.0012338173
        outSlope: -0.0012338173
        tangentMode: 0
        weightedMode: 0
        inWeight: 0.33333334
        outWeight: 0.33333334
      - serializedVersion: 3
        time: 4.116667
        value: 0.22147255
        inSlope: 0.002112689
        outSlope: 0.002112689
        tangentMode: 0
        weightedMode: 0
        inWeight: 0.33333334
        outWeight: 0.33333334
      - serializedVersion: 3
        time: 4.9333334
        value: 0.2220149
        inSlope: -0.0015382478
        outSlope: -0.0015382478
        tangentMode: 0
        weightedMode: 0
        inWeight: 0.33333334
        outWeight: 0.33333334
      - serializedVersion: 3
        time: 5.75
        value: 0.22061443
        inSlope: -0.0005543231
        outSlope: -0.0005543231
        tangentMode: 0
        weightedMode: 0
        inWeight: 0.33333334
        outWeight: 0.33333334
      - serializedVersion: 3
        time: 6.5833335
        value: 0.22174765
        inSlope: 0.0019700844
        outSlope: 0.0019700844
        tangentMode: 0
        weightedMode: 0
        inWeight: 0.33333334
        outWeight: 0.33333334
      - serializedVersion: 3
        time: 7
        value: 0.22224021
        inSlope: 0.00006437216
        outSlope: 0.00006437216
        tangentMode: 0
        weightedMode: 0
        inWeight: 0.33333334
        outWeight: 0.33333334
      m_PreInfinity: 2
      m_PostInfinity: 2
      m_RotationOrder: 4
    attribute: Left Upper Leg Twist In-Out
    path: 
    classID: 95
    script: {fileID: 0}
  - curve:
      serializedVersion: 2
      m_Curve:
      - serializedVersion: 3
        time: 0
        value: -0.52724767
        inSlope: 0.00017166136
        outSlope: 0.00017166136
        tangentMode: 0
        weightedMode: 0
        inWeight: 0.33333334
        outWeight: 0.33333334
      - serializedVersion: 3
        time: 0.81666666
        value: -0.52393997
        inSlope: 0.0044828695
        outSlope: 0.0044828695
        tangentMode: 0
        weightedMode: 0
        inWeight: 0.33333334
        outWeight: 0.33333334
      - serializedVersion: 3
        time: 1.6333333
        value: -0.52450585
        inSlope: -0.005149846
        outSlope: -0.005149846
        tangentMode: 0
        weightedMode: 0
        inWeight: 0.33333334
        outWeight: 0.33333334
      - serializedVersion: 3
        time: 2.4666667
        value: -0.5270923
        inSlope: 0.0022244477
        outSlope: 0.0022244477
        tangentMode: 0
        weightedMode: 0
        inWeight: 0.33333334
        outWeight: 0.33333334
      - serializedVersion: 3
        time: 3.2833333
        value: -0.5234212
        inSlope: 0.0032132897
        outSlope: 0.0032132897
        tangentMode: 0
        weightedMode: 0
        inWeight: 0.33333334
        outWeight: 0.33333334
      - serializedVersion: 3
        time: 4.116667
        value: -0.5253056
        inSlope: -0.0053894576
        outSlope: -0.0053894576
        tangentMode: 0
        weightedMode: 0
        inWeight: 0.33333334
        outWeight: 0.33333334
      - serializedVersion: 3
        time: 4.9333334
        value: -0.5266796
        inSlope: 0.0038623835
        outSlope: 0.0038623835
        tangentMode: 0
        weightedMode: 0
        inWeight: 0.33333334
        outWeight: 0.33333334
      - serializedVersion: 3
        time: 5.75
        value: -0.52310765
        inSlope: 0.0014090532
        outSlope: 0.0014090532
        tangentMode: 0
        weightedMode: 0
        inWeight: 0.33333334
        outWeight: 0.33333334
      - serializedVersion: 3
        time: 6.5833335
        value: -0.52600515
        inSlope: -0.004997855
        outSlope: -0.004997855
        tangentMode: 0
        weightedMode: 0
        inWeight: 0.33333334
        outWeight: 0.33333334
      - serializedVersion: 3
        time: 7
        value: -0.5272477
        inSlope: -0.00016093039
        outSlope: -0.00016093039
        tangentMode: 0
        weightedMode: 0
        inWeight: 0.33333334
        outWeight: 0.33333334
      m_PreInfinity: 2
      m_PostInfinity: 2
      m_RotationOrder: 4
    attribute: LeftFootQ.x
    path: 
    classID: 95
    script: {fileID: 0}
  - curve:
      serializedVersion: 2
      m_Curve:
      - serializedVersion: 3
        time: 0
        value: 0.4652048
        inSlope: 0.00015556811
        outSlope: 0.00015556811
        tangentMode: 0
        weightedMode: 0
        inWeight: 0.33333334
        outWeight: 0.33333334
      - serializedVersion: 3
        time: 0.81666666
        value: 0.46833277
        inSlope: 0.004207496
        outSlope: 0.004207496
        tangentMode: 0
        weightedMode: 0
        inWeight: 0.33333334
        outWeight: 0.33333334
      - serializedVersion: 3
        time: 1.6333333
        value: 0.46780103
        inSlope: -0.0048467563
        outSlope: -0.0048467563
        tangentMode: 0
        weightedMode: 0
        inWeight: 0.33333334
        outWeight: 0.33333334
      - serializedVersion: 3
        time: 2.4666667
        value: 0.4653527
        inSlope: 0.0021144766
        outSlope: 0.0021144766
        tangentMode: 0
        weightedMode: 0
        inWeight: 0.33333334
        outWeight: 0.33333334
      - serializedVersion: 3
        time: 3.2833333
        value: 0.46881914
        inSlope: 0.003004971
        outSlope: 0.003004971
        tangentMode: 0
        weightedMode: 0
        inWeight: 0.33333334
        outWeight: 0.33333334
      - serializedVersion: 3
        time: 4.116667
        value: 0.46704724
        inSlope: -0.0050935196
        outSlope: -0.0050935196
        tangentMode: 0
        weightedMode: 0
        inWeight: 0.33333334
        outWeight: 0.33333334
      - serializedVersion: 3
        time: 4.9333334
        value: 0.46574554
        inSlope: 0.0036755227
        outSlope: 0.0036755227
        tangentMode: 0
        weightedMode: 0
        inWeight: 0.33333334
        outWeight: 0.33333334
      - serializedVersion: 3
        time: 5.75
        value: 0.4691124
        inSlope: 0.0013115996
        outSlope: 0.0013115996
        tangentMode: 0
        weightedMode: 0
        inWeight: 0.33333334
        outWeight: 0.33333334
      - serializedVersion: 3
        time: 6.5833335
        value: 0.4663855
        inSlope: -0.0047332104
        outSlope: -0.0047332104
        tangentMode: 0
        weightedMode: 0
        inWeight: 0.33333334
        outWeight: 0.33333334
      - serializedVersion: 3
        time: 7
        value: 0.4652048
        inSlope: -0.00014483735
        outSlope: -0.00014483735
        tangentMode: 0
        weightedMode: 0
        inWeight: 0.33333334
        outWeight: 0.33333334
      m_PreInfinity: 2
      m_PostInfinity: 2
      m_RotationOrder: 4
    attribute: LeftFootQ.y
    path: 
    classID: 95
    script: {fileID: 0}
  - curve:
      serializedVersion: 2
      m_Curve:
      - serializedVersion: 3
        time: 0
        value: -0.49068445
        inSlope: 0.00013589859
        outSlope: 0.00013589859
        tangentMode: 0
        weightedMode: 0
        inWeight: 0.33333334
        outWeight: 0.33333334
      - serializedVersion: 3
        time: 0.81666666
        value: -0.48772213
        inSlope: 0.004008118
        outSlope: 0.004008118
        tangentMode: 0
        weightedMode: 0
        inWeight: 0.33333334
        outWeight: 0.33333334
      - serializedVersion: 3
        time: 1.6333333
        value: -0.48822832
        inSlope: -0.004613404
        outSlope: -0.004613404
        tangentMode: 0
        weightedMode: 0
        inWeight: 0.33333334
        outWeight: 0.33333334
      - serializedVersion: 3
        time: 2.4666667
        value: -0.4905453
        inSlope: 0.001990201
        outSlope: 0.001990201
        tangentMode: 0
        weightedMode: 0
        inWeight: 0.33333334
        outWeight: 0.33333334
      - serializedVersion: 3
        time: 3.2833333
        value: -0.48725796
        inSlope: 0.0028699664
        outSlope: 0.0028699664
        tangentMode: 0
        weightedMode: 0
        inWeight: 0.33333334
        outWeight: 0.33333334
      - serializedVersion: 3
        time: 4.116667
        value: -0.4889441
        inSlope: -0.004831557
        outSlope: -0.004831557
        tangentMode: 0
        weightedMode: 0
        inWeight: 0.33333334
        outWeight: 0.33333334
      - serializedVersion: 3
        time: 4.9333334
        value: -0.49017507
        inSlope: 0.0034654164
        outSlope: 0.0034654164
        tangentMode: 0
        weightedMode: 0
        inWeight: 0.33333334
        outWeight: 0.33333334
      - serializedVersion: 3
        time: 5.75
        value: -0.4869776
        inSlope: 0.0012552734
        outSlope: 0.0012552734
        tangentMode: 0
        weightedMode: 0
        inWeight: 0.33333334
        outWeight: 0.33333334
      - serializedVersion: 3
        time: 6.5833335
        value: -0.48957083
        inSlope: -0.0044783996
        outSlope: -0.0044783996
        tangentMode: 0
        weightedMode: 0
        inWeight: 0.33333334
        outWeight: 0.33333334
      - serializedVersion: 3
        time: 7
        value: -0.4906845
        inSlope: -0.00014483735
        outSlope: -0.00014483735
        tangentMode: 0
        weightedMode: 0
        inWeight: 0.33333334
        outWeight: 0.33333334
      m_PreInfinity: 2
      m_PostInfinity: 2
      m_RotationOrder: 4
    attribute: LeftFootQ.z
    path: 
    classID: 95
    script: {fileID: 0}
  - curve:
      serializedVersion: 2
      m_Curve:
      - serializedVersion: 3
        time: 0
        value: 0.51461
        inSlope: 0.00016093253
        outSlope: 0.00016093253
        tangentMode: 0
        weightedMode: 0
        inWeight: 0.33333334
        outWeight: 0.33333334
      - serializedVersion: 3
        time: 0.81666666
        value: 0.51795614
        inSlope: 0.004502539
        outSlope: 0.004502539
        tangentMode: 0
        weightedMode: 0
        inWeight: 0.33333334
        outWeight: 0.33333334
      - serializedVersion: 3
        time: 1.6333333
        value: 0.5173866
        inSlope: -0.0051784567
        outSlope: -0.0051784567
        tangentMode: 0
        weightedMode: 0
        inWeight: 0.33333334
        outWeight: 0.33333334
      - serializedVersion: 3
        time: 2.4666667
        value: 0.51476777
        inSlope: 0.0022637867
        outSlope: 0.0022637867
        tangentMode: 0
        weightedMode: 0
        inWeight: 0.33333334
        outWeight: 0.33333334
      - serializedVersion: 3
        time: 3.2833333
        value: 0.51847726
        inSlope: 0.0032240185
        outSlope: 0.0032240185
        tangentMode: 0
        weightedMode: 0
        inWeight: 0.33333334
        outWeight: 0.33333334
      - serializedVersion: 3
        time: 4.116667
        value: 0.51657975
        inSlope: -0.0054502543
        outSlope: -0.0054502543
        tangentMode: 0
        weightedMode: 0
        inWeight: 0.33333334
        outWeight: 0.33333334
      - serializedVersion: 3
        time: 4.9333334
        value: 0.51518774
        inSlope: 0.0039213924
        outSlope: 0.0039213924
        tangentMode: 0
        weightedMode: 0
        inWeight: 0.33333334
        outWeight: 0.33333334
      - serializedVersion: 3
        time: 5.75
        value: 0.5187917
        inSlope: 0.0014036889
        outSlope: 0.0014036889
        tangentMode: 0
        weightedMode: 0
        inWeight: 0.33333334
        outWeight: 0.33333334
      - serializedVersion: 3
        time: 6.5833335
        value: 0.51587194
        inSlope: -0.00506044
        outSlope: -0.00506044
        tangentMode: 0
        weightedMode: 0
        inWeight: 0.33333334
        outWeight: 0.33333334
      - serializedVersion: 3
        time: 7
        value: 0.51460993
        inSlope: -0.00016450662
        outSlope: -0.00016450662
        tangentMode: 0
        weightedMode: 0
        inWeight: 0.33333334
        outWeight: 0.33333334
      m_PreInfinity: 2
      m_PostInfinity: 2
      m_RotationOrder: 4
    attribute: LeftFootQ.w
    path: 
    classID: 95
    script: {fileID: 0}
  - curve:
      serializedVersion: 2
      m_Curve:
      - serializedVersion: 3
        time: 0
        value: -0.07422801
        inSlope: 0
        outSlope: 0
        tangentMode: 0
        weightedMode: 0
        inWeight: 0.33333334
        outWeight: 0.33333334
      - serializedVersion: 3
        time: 7
        value: -0.07422801
        inSlope: 0
        outSlope: 0
        tangentMode: 0
        weightedMode: 0
        inWeight: 0.33333334
        outWeight: 0.33333334
      m_PreInfinity: 2
      m_PostInfinity: 2
      m_RotationOrder: 4
    attribute: LeftFootT.x
    path: 
    classID: 95
    script: {fileID: 0}
  - curve:
      serializedVersion: 2
      m_Curve:
      - serializedVersion: 3
        time: 0
        value: -0.70149463
        inSlope: -0.00021100043
        outSlope: -0.00021100043
        tangentMode: 0
        weightedMode: 0
        inWeight: 0.33333334
        outWeight: 0.33333334
      - serializedVersion: 3
        time: 0.81666666
        value: -0.7055562
        inSlope: -0.0052499822
        outSlope: -0.0052499822
        tangentMode: 0
        weightedMode: 0
        inWeight: 0.33333334
        outWeight: 0.33333334
      - serializedVersion: 3
        time: 1.6333333
        value: -0.70488834
        inSlope: 0.0061351117
        outSlope: 0.0061351117
        tangentMode: 0
        weightedMode: 0
        inWeight: 0.33333334
        outWeight: 0.33333334
      - serializedVersion: 3
        time: 2.4666667
        value: -0.7016929
        inSlope: -0.002852085
        outSlope: -0.002852085
        tangentMode: 0
        weightedMode: 0
        inWeight: 0.33333334
        outWeight: 0.33333334
      - serializedVersion: 3
        time: 3.2833333
        value: -0.7061577
        inSlope: -0.0036656891
        outSlope: -0.0036656891
        tangentMode: 0
        weightedMode: 0
        inWeight: 0.33333334
        outWeight: 0.33333334
      - serializedVersion: 3
        time: 4.116667
        value: -0.70392555
        inSlope: 0.006544596
        outSlope: 0.006544596
        tangentMode: 0
        weightedMode: 0
        inWeight: 0.33333334
        outWeight: 0.33333334
      - serializedVersion: 3
        time: 4.9333334
        value: -0.70221883
        inSlope: -0.0048869886
        outSlope: -0.0048869886
        tangentMode: 0
        weightedMode: 0
        inWeight: 0.33333334
        outWeight: 0.33333334
      - serializedVersion: 3
        time: 5.75
        value: -0.70651686
        inSlope: -0.001587867
        outSlope: -0.001587867
        tangentMode: 0
        weightedMode: 0
        inWeight: 0.33333334
        outWeight: 0.33333334
      - serializedVersion: 3
        time: 6.5833335
        value: -0.70306474
        inSlope: 0.006219155
        outSlope: 0.006219155
        tangentMode: 0
        weightedMode: 0
        inWeight: 0.33333334
        outWeight: 0.33333334
      - serializedVersion: 3
        time: 7
        value: -0.70149434
        inSlope: 0.0002074214
        outSlope: 0.0002074214
        tangentMode: 0
        weightedMode: 0
        inWeight: 0.33333334
        outWeight: 0.33333334
      m_PreInfinity: 2
      m_PostInfinity: 2
      m_RotationOrder: 4
    attribute: LeftFootT.y
    path: 
    classID: 95
    script: {fileID: 0}
  - curve:
      serializedVersion: 2
      m_Curve:
      - serializedVersion: 3
        time: 0
        value: 0.34949
        inSlope: -0.00030934808
        outSlope: -0.00030934808
        tangentMode: 0
        weightedMode: 0
        inWeight: 0.33333334
        outWeight: 0.33333334
      - serializedVersion: 3
        time: 0.81666666
        value: 0.34353703
        inSlope: -0.008024283
        outSlope: -0.008024283
        tangentMode: 0
        weightedMode: 0
        inWeight: 0.33333334
        outWeight: 0.33333334
      - serializedVersion: 3
        time: 1.6333333
        value: 0.34455132
        inSlope: 0.009225019
        outSlope: 0.009225019
        tangentMode: 0
        weightedMode: 0
        inWeight: 0.33333334
        outWeight: 0.33333334
      - serializedVersion: 3
        time: 2.4666667
        value: 0.34920868
        inSlope: -0.0040251054
        outSlope: -0.0040251054
        tangentMode: 0
        weightedMode: 0
        inWeight: 0.33333334
        outWeight: 0.33333334
      - serializedVersion: 3
        time: 3.2833333
        value: 0.34259778
        inSlope: -0.005713111
        outSlope: -0.005713111
        tangentMode: 0
        weightedMode: 0
        inWeight: 0.33333334
        outWeight: 0.33333334
      - serializedVersion: 3
        time: 4.116667
        value: 0.34598082
        inSlope: 0.009714076
        outSlope: 0.009714076
        tangentMode: 0
        weightedMode: 0
        inWeight: 0.33333334
        outWeight: 0.33333334
      - serializedVersion: 3
        time: 4.9333334
        value: 0.34846115
        inSlope: -0.0069782184
        outSlope: -0.0069782184
        tangentMode: 0
        weightedMode: 0
        inWeight: 0.33333334
        outWeight: 0.33333334
      - serializedVersion: 3
        time: 5.75
        value: 0.3420367
        inSlope: -0.002515017
        outSlope: -0.002515017
        tangentMode: 0
        weightedMode: 0
        inWeight: 0.33333334
        outWeight: 0.33333334
      - serializedVersion: 3
        time: 6.5833335
        value: 0.34724304
        inSlope: 0.009011338
        outSlope: 0.009011338
        tangentMode: 0
        weightedMode: 0
        inWeight: 0.33333334
        outWeight: 0.33333334
      - serializedVersion: 3
        time: 7
        value: 0.34949008
        inSlope: 0.00029682717
        outSlope: 0.00029682717
        tangentMode: 0
        weightedMode: 0
        inWeight: 0.33333334
        outWeight: 0.33333334
      m_PreInfinity: 2
      m_PostInfinity: 2
      m_RotationOrder: 4
    attribute: LeftFootT.z
    path: 
    classID: 95
    script: {fileID: 0}
  m_EulerEditorCurves: []
  m_HasGenericRootTransform: 0
  m_HasMotionFloatCurves: 0
  m_Events: []
