%YAML 1.1
%TAG !u! tag:unity3d.com,2011:
--- !u!114 &11400000
MonoBehaviour:
  m_ObjectHideFlags: 0
  m_CorrespondingSourceObject: {fileID: 0}
  m_PrefabInstance: {fileID: 0}
  m_PrefabAsset: {fileID: 0}
  m_GameObject: {fileID: 0}
  m_Enabled: 1
  m_EditorHideFlags: 0
  m_Script: {fileID: 11500000, guid: e24435c25e7e97846a23412393f0d32a, type: 3}
  m_Name: SpriteCollector
  m_EditorClassIdentifier: 
  sad: {fileID: 21300000, guid: 5c4f31d1a59f1204199bba55b0f4761c, type: 3}
  medium: {fileID: 21300000, guid: 8744097e9f305ff46bdfaff6d8061a8a, type: 3}
  happy: {fileID: 21300000, guid: e7fd177ae62f66840aad9b2d85a397b5, type: 3}
  card: {fileID: 21300000, guid: 767e3dc5982940245b288e5559100987, type: 3}
  flip: {fileID: 21300000, guid: 9f96fa6e2a86ba749a5ab9fff7a62a81, type: 3}
  stop: {fileID: 21300000, guid: aed9534c07cf54f448afc663246e99fa, type: 3}
  busted: {fileID: 0}
